<?xml version="1.0" encoding="UTF-8" standalone="no"?>
<svg
   xmlns:dc="http://purl.org/dc/elements/1.1/"
   xmlns:cc="http://creativecommons.org/ns#"
   xmlns:rdf="http://www.w3.org/1999/02/22-rdf-syntax-ns#"
   xmlns:svg="http://www.w3.org/2000/svg"
   xmlns="http://www.w3.org/2000/svg"
   xmlns:sodipodi="http://sodipodi.sourceforge.net/DTD/sodipodi-0.dtd"
   xmlns:inkscape="http://www.inkscape.org/namespaces/inkscape"
   width="100mm"
   height="65mm"
   viewBox="0 0 99.999997 64.999998"
   version="1.1"
   id="svg30"
   sodipodi:docname="ghost_bottom.svg"
   inkscape:version="0.92.5 (2060ec1f9f, 2020-04-08)">
  <metadata
     id="metadata36">
    <rdf:RDF>
      <cc:Work
         rdf:about="">
        <dc:format>image/svg+xml</dc:format>
        <dc:type
           rdf:resource="http://purl.org/dc/dcmitype/StillImage" />
        <dc:title></dc:title>
      </cc:Work>
    </rdf:RDF>
  </metadata>
  <defs
     id="defs34" />
  <sodipodi:namedview
     pagecolor="#ffffff"
     bordercolor="#666666"
     borderopacity="1"
     objecttolerance="10"
     gridtolerance="10"
     guidetolerance="10"
     inkscape:pageopacity="0"
     inkscape:pageshadow="2"
     inkscape:window-width="2560"
     inkscape:window-height="1387"
     id="namedview32"
     showgrid="false"
     inkscape:pagecheckerboard="true"
     inkscape:zoom="2.8284271"
     inkscape:cx="126.82572"
     inkscape:cy="148.02934"
     inkscape:window-x="0"
     inkscape:window-y="25"
     inkscape:window-maximized="1"
     inkscape:current-layer="Shape2DView" />
  <g
     id="Shape2DView"
     transform="matrix(1,0,0,-1,70.65,14.349998)">
    <title
       id="title27">b'Shape2DView'</title>
    <path
       style="fill:#ffffff;stroke:none;stroke-width:0.26458332px;stroke-linecap:butt;stroke-linejoin:miter;stroke-opacity:1"
       d="M 29.352391,-50.650483 -70.65,-50.65 c 4.808662,-0.09573 7.161498,10.064134 12.499999,9.999999 5.335552,-0.0641 7.164063,-9.999999 12.5,-9.999999 5.335937,0 7.164063,9.999999 12.499999,9.999999 5.335937,0 7.164063,-9.999999 12.5,-9.999999 5.335936,0 7.164063,9.999999 12.4999992,9.999999 5.3359365,0 7.16406297,-9.999999 12.4999995,-9.999999 5.3359365,0 7.1654613,9.877853 12.4999993,9.999999 5.331362,0.122073 6.433484,-10.05383 12.502395,-10.000482 z"
       id="path920"
       inkscape:connector-curvature="0"
       sodipodi:nodetypes="ccsaaaaasc" />
  </g>
</svg>
