<?xml version="1.0" encoding="UTF-8" standalone="no"?>
<!-- Created with Inkscape (http://www.inkscape.org/) -->

<svg
   width="200mm"
   height="200mm"
   viewBox="0 0 200 200"
   version="1.1"
   id="svg1"
   inkscape:version="1.3 (0e150ed6c4, 2023-07-21)"
   sodipodi:docname="spekkie_size_guide.svg"
   inkscape:export-filename="spekkie_size_guide.png"
   inkscape:export-xdpi="130.048"
   inkscape:export-ydpi="130.048"
   xmlns:inkscape="http://www.inkscape.org/namespaces/inkscape"
   xmlns:sodipodi="http://sodipodi.sourceforge.net/DTD/sodipodi-0.dtd"
   xmlns="http://www.w3.org/2000/svg"
   xmlns:svg="http://www.w3.org/2000/svg">
  <sodipodi:namedview
     id="namedview1"
     pagecolor="#505050"
     bordercolor="#ffffff"
     borderopacity="1"
     inkscape:showpageshadow="0"
     inkscape:pageopacity="0"
     inkscape:pagecheckerboard="1"
     inkscape:deskcolor="#d1d1d1"
     inkscape:document-units="mm"
     inkscape:zoom="1.0883896"
     inkscape:cx="269.20507"
     inkscape:cy="297.22812"
     inkscape:window-width="2560"
     inkscape:window-height="1389"
     inkscape:window-x="2560"
     inkscape:window-y="27"
     inkscape:window-maximized="1"
     inkscape:current-layer="layer1" />
  <defs
     id="defs1" />
  <g
     inkscape:label="Layer 1"
     inkscape:groupmode="layer"
     id="layer1">
    <rect
       style="fill:#ffffff;fill-opacity:1;stroke:none;stroke-width:0.999996;stroke-dasharray:0.999996, 0.999996"
       id="rect1"
       width="200"
       height="200"
       x="0"
       y="0" />
    <rect
       style="fill:none;fill-opacity:1;stroke:#009e73;stroke-width:2;stroke-dasharray:none;stroke-opacity:1"
       id="rect1-5-2-7"
       width="198"
       height="198"
       x="1"
       y="1" />
    <rect
       style="fill:none;fill-opacity:1;stroke:#56b4e9;stroke-width:2;stroke-dasharray:none;stroke-opacity:1"
       id="rect1-5-2"
       width="148"
       height="148"
       x="1"
       y="1" />
    <rect
       style="fill:none;fill-opacity:1;stroke:#e69f00;stroke-width:2;stroke-dasharray:none;stroke-opacity:1"
       id="rect1-5"
       width="98"
       height="98"
       x="1"
       y="1" />
    <path
       id="Sketch014_w0000"
       d="m 18.67767,107.06602 81.317275,17.67767 H 124.74368 V 99.994949 L 107.06601,18.67767 25.748738,1 H 1 v 24.748738 l 17.67767,81.317282"
       stroke="#000000"
       stroke-width="0.35 px"
       style="fill:none;fill-opacity:1;fill-rule:evenodd;stroke-width:2;stroke-linecap:square;stroke-miterlimit:4;stroke-dasharray:none" />
    <text
       xml:space="preserve"
       style="font-style:normal;font-variant:normal;font-weight:normal;font-stretch:normal;font-size:10px;line-height:0px;font-family:Monospace;-inkscape-font-specification:Monospace;fill:#ff0000;fill-opacity:1;stroke:#e69f00;stroke-width:1;stroke-dasharray:none;stroke-opacity:1"
       x="154.53"
       y="12.74"
       id="text1"><tspan
         sodipodi:role="line"
         id="tspan1"
         style="font-style:normal;font-variant:normal;font-weight:normal;font-stretch:normal;font-size:10px;font-family:Monospace;-inkscape-font-specification:Monospace;stroke:#e69f00;stroke-width:1;stroke-opacity:1"
         x="154.53"
         y="12.74">100x100</tspan></text>
    <text
       xml:space="preserve"
       style="font-style:normal;font-variant:normal;font-weight:normal;font-stretch:normal;font-size:10px;line-height:0px;font-family:Monospace;-inkscape-font-specification:Monospace;fill:#ff0000;fill-opacity:1;stroke:#56b4e9;stroke-width:1;stroke-dasharray:none;stroke-opacity:1"
       x="154.53"
       y="22.74"
       id="text2"><tspan
         sodipodi:role="line"
         id="tspan2"
         style="font-style:normal;font-variant:normal;font-weight:normal;font-stretch:normal;font-size:10px;font-family:Monospace;-inkscape-font-specification:Monospace;stroke:#56b4e9;stroke-width:1;stroke-opacity:1"
         x="154.53"
         y="22.74">150x150</tspan></text>
    <text
       xml:space="preserve"
       style="font-style:normal;font-variant:normal;font-weight:normal;font-stretch:normal;font-size:10px;line-height:0px;font-family:Monospace;-inkscape-font-specification:Monospace;fill:#ff0000;fill-opacity:1;stroke:#009e73;stroke-width:1;stroke-dasharray:none;stroke-opacity:1"
       x="154.53"
       y="32.740002"
       id="text3"><tspan
         sodipodi:role="line"
         id="tspan3"
         style="font-style:normal;font-variant:normal;font-weight:normal;font-stretch:normal;font-size:10px;font-family:Monospace;-inkscape-font-specification:Monospace;stroke-width:1;stroke:#009e73;stroke-opacity:1"
         x="154.53"
         y="32.740002">200x200</tspan></text>
  </g>
</svg>
